…
### EMP_rowdata_extract

1. Extract the rowdata of one existed experiment from MultiAssaayExperiment

```R
MAE |>
  EMP_rowdata_extract('taxonomy')
```
  # A tibble: 443 × 9
     feature                                            Kindom Phylum Class Order Family Genus Species Strain
     <chr>                                              <chr>  <chr>  <chr> <chr> <chr>  <chr> <chr>   <chr> 
   1 Archaea;Candidatus_Thermoplasmatota;Thermoplasmat… Archa… Candi… Ther… Meth… Metha… Meth… Candid… Candi…
   2 Archaea;Euryarchaeota;Methanobacteria;Methanobact… Archa… Eurya… Meth… Meth… Metha… Meth… Methan… Metha…
   3 Bacteria;Actinobacteria;Actinomycetia;Actinomycet… Bacte… Actin… Acti… Acti… Actin… Scha… Schaal… Schaa…
   4 Bacteria;Actinobacteria;Actinomycetia;Actinomycet… Bacte… Actin… Acti… Acti… Actin… Scha… Schaal… Schaa…
   5 Bacteria;Actinobacteria;Actinomycetia;Bifidobacte… Bacte… Actin… Acti… Bifi… Bifid… Bifi… Bifido… Bifid…
   6 Bacteria;Actinobacteria;Actinomycetia;Bifidobacte… Bacte… Actin… Acti… Bifi… Bifid… Bifi… Bifido… Bifid…
   7 Bacteria;Actinobacteria;Actinomycetia;Bifidobacte… Bacte… Actin… Acti… Bifi… Bifid… Bifi… Bifido… Bifid…
   8 Bacteria;Actinobacteria;Actinomycetia;Bifidobacte… Bacte… Actin… Acti… Bifi… Bifid… Bifi… Bifido… Bifid…
   9 Bacteria;Actinobacteria;Actinomycetia;Bifidobacte… Bacte… Actin… Acti… Bifi… Bifid… Bifi… Bifido… Bifid…
  10 Bacteria;Actinobacteria;Actinomycetia;Bifidobacte… Bacte… Actin… Acti… Bifi… Bifid… Bifi… Bifido… Bifid…
  # ℹ 433 more rows
  # ℹ Use `print(n = ...)` to see more rows

```R
MAE |>
  EMP_rowdata_extract('geno_ko')  
```
  # A tibble: 7,629 × 2
     feature Name                                                                                            
     <chr>   <chr>                                                                                           
   1 K00001  E1.1.1.1, adh; alcohol dehydrogenase [EC:1.1.1.1]                                               
   2 K00002  AKR1A1, adh; alcohol dehydrogenase (NADP+) [EC:1.1.1.2]                                         
   3 K00003  hom; homoserine dehydrogenase [EC:1.1.1.3]                                                      
   4 K00004  BDH, butB; (R,R)-butanediol dehydrogenase / meso-butanediol dehydrogenase / diacetyl reductase …
   5 K00005  gldA; glycerol dehydrogenase [EC:1.1.1.6]                                                       
   6 K00007  dalD; D-arabinitol 4-dehydrogenase [EC:1.1.1.11]                                                
   7 K00008  SORD, gutB; L-iditol 2-dehydrogenase [EC:1.1.1.14]                                              
   8 K00009  mtlD; mannitol-1-phosphate 5-dehydrogenase [EC:1.1.1.17]                                        
   9 K00010  iolG; myo-inositol 2-dehydrogenase / D-chiro-inositol 1-dehydrogenase [EC:1.1.1.18 1.1.1.369]   
  10 K00011  AKR1B; aldehyde reductase [EC:1.1.1.21]                                                         
  # ℹ 7,619 more rows
  # ℹ Use `print(n = ...)` to see more rows
…
